[
    {
        "Type":"Aquatic",
        "Name":"Penguin",
        "Description":"Penguins are a group of aquatic, flightless birds living that are highly adapted for life in the water. Penguins have countershaded dark and white plumage, and their wings have evolved into flippers. Most penguins feed on krill, fish, squid and other forms of sea life caught while swimming underwater. They spend about half of their lives on land and half in the oceans.",
        "Habitat":"Antartica",
        "Lifespan":"6.5 years",
	"Petname":"Flipper",
	"Age":"3",
	"Weight":"6lbs",
	"URL":"http://i.imgur.com/iYGFLR3.jpg"
    },

    {
        "Type":"Aquatic",
        "Name":"Whale",
        "Description":"A member of a group of water animals, some species of which are the largest animals ever known. Although it lives in water all its life and is shaped like a fish, the whale is a mammal. It is warmblooded, breathes air, bears living young, and suckles its young with milk.",
        "Habitat":"Arctic, warm climates",
        "Lifespan":"100 years",
	"Petname":"Shamu",
	"Age":"76",
	"Weight":"6000lbs",
	"URL":"http://i.imgur.com/FndpOXp.jpg"
    },

    {
	"Type":"Aquatic",
	"Name":"Seal",
        "Description":"Seal, a meat-eating mammal found in all oceans of the world, but most abundant in Arctic and Antarctic waters. Some seals swim up rivers, and a few are found only in freshwater lakes. Probably the best-known seal species is the Californian sea lion, which is often trained to perform tricks. It is the species most often found in zoos.",
        "Habitat":"Arctic, warm and cold climates, near salt water",
        "Lifespan":"40 years",
	"Petname":"Scoot",
	"Age":"11",
	"Weight":"55lbs",
	"URL":"http://i.imgur.com/f9pAs8R.jpg"
    },

    {
	"Type":"Land",
	"Name":"Lion",
        "Description":"These kings of the jungle can weigh between 250 and 550 pounds, depending on sex and age and can grow up to be 14 years old in the wild and over the age of 20 years old in captivity. They become capable at hunting at the age of two and are fully grown after 5 or 6 years. Male lions are distinguishable for their impressive manes, which signifies their masculinity and reflects their health. The darker and thicker the mane, the healthier the lion. It allows the lions to appear stronger and frightening to warn off enemies, particularly humans, and appeals to lionesses that are scientifically proven to mate more with lions with thick and dark manes. Lions with no manes are either genetically inbred or have been castrated.",
        "Continent":"Africa",
        "Lifespan":"15-20 years",
	"Petname":"Simba",
	"Age":"7",
	"Weight":"300lbs",
	"URL":"http://i.imgur.com/VJyGW0I.jpg"
    },

    {
	"Type":"Land",
	"Name":"Zebra",
        "Description":"Zebras have shiny coats that dissipate over 70 percent of incoming heat, and some scientists believe the stripes help the animals withstand intense solar radiation. The black and white stripes are a form of camouflage called disruptive coloration that breaks up the outline of the body. Although the pattern is visible during daytime, at dawn or in the evening when their predators are most active, zebras look indistinct and may confuse predators by distorting true distance.",
        "Continent":"Africa",
        "Lifespan":"40 years",
	"Petname":"Ziva",
	"Age":"39",
	"Weight":"660bs",
	"URL":"http://i.imgur.com/Eu2UVwX.jpg"
    },

    {
	"Type":"Land",
	"Name":"Brown Bear",
        "Description":"Brown bears can be found throughout northern and western Canada and northern Europe. They are commonly found in Alaska and may be seen in the northwestern corner of the United States. Some live near the coast, where salmon are abundant in the streams. Others live farther inland in brushy areas. These are the bears that are more commonly referred to as grizzlies.",
        "Continent":"North America, Asia",
        "Lifespan":"20-25 years",
	"Petname":"Ursula",
	"Age":"17",
	"Weight":"500bs",
	"URL":"http://i.imgur.com/4Otacv9.jpg"
    },

    {
	"Type":"Flying",
	"Name":"Bald Eagle",
        "Description":"The Bald Eagle has been the national emblem of the United States since 1782 and a spiritual symbol for native people for far longer than that. These regal birds aren’t really bald, but their white-feathered heads gleam in contrast to their chocolate-brown body and wings. Look for them soaring in solitude, chasing other birds for their food, or gathering by the hundreds in winter. Once endangered by hunting and pesticides, Bald Eagles have flourished under protection.",
        "Continent":"North America",
        "Lifespan":"20-25 years",
	"Wingspan":"72-90 inches",
	"Petname":"Lucky",
	"Age":"19",
	"Weight":"9lbs",
	"URL":"http://i.imgur.com/voGG6kS.jpg"
    },

    {
	"Type":"Flying",
	"Name":"Owl",
        "Description":"Owls are a group of birds that belong to the order Strigiformes, constituting 200 extant bird of prey species. Most are solitary and nocturnal with some exceptions (e.g., the Northern Hawk Owl). Owls hunt mostly small mammals, insects, and other birds, although a few species specialize in hunting fish. They are found in all regions of the Earth except Antarctica most of Greenland, and some remote islands. Owls are characterized by their small beaks and wide faces, and are divided into two families: the typical owls, Strigidae; and the barn-owls, Tytonidae.",
        "Continent":"All main regions except Antarctica and Greenland",
        "Lifespan":"30 years",
	"Wingspan":"17-25 inches",
	"Petname":"Harry",
	"Age":"21",
	"Weight":"4.7lbs",
	"URL":"http://i.imgur.com/WoMgyui.jpg"
    },

    {
	"Type":"Flying",
	"Name":"Macaw",
        "Description":"Macaws are beautiful, brilliantly colored members of the parrot family. Many macaws have vibrant plumage. The coloring is suited to life in Central and South American rain forests, with their green canopies and colorful fruits and flowers. The birds boast large, powerful beaks that easily crack nuts and seeds, while their dry, scaly tongues have a bone inside them that makes them an effective tool for tapping into fruits.",
        "Continent":"South America",
        "Lifespan":"60 years",
	"Wingspan":"32-35 inches",
	"Petname":"Bandit",
	"Age":"9",
	"Weight":"3lbs",
	"URL":"http://i.imgur.com/CetSQap.jpg"
    },

    {
       "Type":"Land",
       "Name":"Ferret",
       "Description":"The ferret (Mustela putorius furo) is the domesticated form of the European Polecat, a mammal belonging to the weasel genus of the family Mustelidae. They typically have brown, black, white, or mixed fur. Ferrets are crepuscular, which means they spend 14 to 18 hours a day asleep and are most active around the hours of dawn and dusk. When excited, they may perform a routine commonly referred to as the weasel war dance, characterized by a frenzied series of sideways hops and bumping into things. Despite its zeal, this is not aggressive but is a joyful invitation to play.",
       "Continent":"North America",
       "Lifespan":"10 years",
       "Petname":"Rogue",
       "Age":"<1 year",
       "Weight":"2lbs",
       "URL":"http://i.imgur.com/3QB2gEz.jpg"
     }
]
